Lab 3
…
# A tibble: 1 × 2
  word   mean
  <fct> <dbl>
1 5-0     4.2

#least familiar 
hip_hop_clean |> 
  filter(ethnic_class == "white", sex == "Male", age > 30) |>  
  group_by(word) |> 
  summarize(mean = mean(familiarity)) |> 
  slice_min(mean)

# A tibble: 25 × 2
   word               mean
   <fct>             <dbl>
 1 ay yo trip            1
 2 beezy                 1
 3 break someone out     1
 4 catch the vapors      1
 5 crossroads            1
 6 crump                 1
 7 dap                   1
 8 dollar cab            1
 9 domino                1
10 duckets               1
# … with 15 more rows
…
